29884 76913 340
79026 62220 351
64592 8081 340
7697 9949 260
77991 52118 351
57037 66420 335
89988 49005 351
62434 97676 351
97743 96802 297
20031 30711 308
94271 21483 351
8249 13957 276
42799 93488 351
48243 79276 351
84245 62941 351
43219 61978 340
90025 44864 351
35123 54576 340
22432 48591 324
73929 22265 340
61659 83634 351
72746 67654 325
94729 76677 351
11453 54973 340
77940 28544 351
56275 3334 340
45679 27247 324
13862 64842 340
74508 25214 340
56578 55290 322
30863 80882 351
26937 97370 351
22498 28165 308
69016 88703 351
21309 46316 324
17369 4251 276
97091 88782 333
33666 44569 324
20583 80705 351
19416 1279 279
23577 97488 351
21442 10900 279
86768 12289 351
89248 36468 351
30446 68783 340
82652 15687 351
46213 94726 351
52217 29320 324
41213 74208 340
88469 87555 333
36933 5594 324
33336 93742 351
37276 99114 351
58188 40596 340
35910 71188 340
23202 26292 282
28585 92417 351
33858 14491 308
52772 70594 335
26894 41964 324
25239 18495 282
82708 28187 351
1013 97388 351
71982 70132 325
89706 16304 351
47899 69848 340
39317 90966 351
87660 44169 351
78522 90576 338
12055 42510 324
39172 18442 324
66130 36647 340
17178 88567 351
5799 51009 324
37351 89982 351
74450 38384 340
9063 37474 324
7995 89595 351
93593 9798 351
40005 14017 324
19484 11075 279
10399 17141 276
34122 19090 308
47217 57199 340
99086 64964 351
3721 55867 340
98774 66333 351
72911 59865 335
17612 79585 351
611 55404 340
2398 85725 351
28069 85085 351
27073 80131 351
94872 41482 351
70106 40678 340
81301 44571 351
68841 95420 351
66151 70792 312
23232 8715 279
14087 62693 340
692 3136 217
22686 8808 279
13602 94991 351
45819 5446 324
75086 14637 340
40587 91644 351
96602 75184 351
31794 2542 308
86187 37615 351
94181 55452 351
10150 2731 262
33223 56691 340
36525 67619 340
91795 69817 351
87770 43980 351
48251 64713 340
44881 92108 351
83327 50830 351
67752 32595 340
88702 17698 351
75914 66966 325
99423 34614 351
30530 98695 351
22656 64789 340
26410 86598 351
61656 55100 335
94166 69769 351
85303 89161 333
29950 64282 340
26346 40297 324
74130 23557 340
74591 36923 340
8849 79640 351
98130 29801 351
65115 66842 268
28388 42637 324
83935 76196 351
86998 65863 351
5112 32658 308
34805 29710 311
