1 10 20
100 200 125
201 210 89
900 1000 174
30576 86157 351
34966 3082 311
32232 19087 308
74395 13467 340
40248 87737 351
26451 36374 324
49958 62059 340
95453 12896 351
76193 93082 351
91429 21533 351
86454 36695 351
62163 49236 340
72494 40662 340
39338 61337 340
16070 55337 340
89683 71280 351
54106 12295 340
22768 11705 279
39593 22845 324
89003 33427 351
19255 99616 351
59878 45276 340
52635 56132 322
9530 96257 351
67105 93632 351
6996 15059 276
61867 20764 340
40537 90596 351
95689 98209 297
49561 35278 324
75965 77081 351
86164 79788 320
67739 32764 340
77462 19930 351
7908 85548 351
40481 42119 288
69459 64194 312
72260 26981 340
51793 33219 324
17836 26743 308
28013 79717 351
72163 41055 340
13676 99036 351
4315 59723 340
10710 75418 340
15086 90415 351
70161 8088 340
67017 84111 351
47518 56768 340
54219 60220 322
58816 88908 351
72810 13440 340
99201 39942 351
93523 99047 328
38824 66841 340
17601 49043 324
3670 96616 351
50582 16556 324
15589 32794 308
95679 86767 333
94425 65686 351
49033 68006 340
61159 46884 340
69602 63438 312
46850 88167 351
7575 22982 279
60814 83005 351
32973 19942 308
83502 86486 320
86222 46954 351
93564 65519 351
41410 97507 351
43508 87594 351
38424 88745 351
14501 82800 351
75155 7637 340
70368 90959 351
30801 17030 308
46632 47277 283
13402 63995 340
2305 14989 276
99032 17013 351
82963 16399 351
63147 2518 340
10162 86961 351
66626 5236 340
65882 44950 340
21315 3498 279
32782 20014 308
13428 79519 351
52558 65722 335
53635 49911 340
86498 59806 351
59410 5719 340
82169 8047 351
50376 92815 351
781 64781 340
53772 42334 340
50570 94499 351
77705 11696 351
