1 10 20
100 200 125
201 210 89
900 1000 174
16 16 5
1000000 1000000 153
10000 10200 224
1249 11568 268
7 87 116
8956 10000 260
11000 11500 237
17852 18000 248
234567 345678 407
17 240 128
230 240 128
546 569 137
4994 18459 279
2634 16561 276
3589 10135 262
1148 26605 282
1119 29473 308
1069 25309 282
1757 18550 279
1553 15709 276
41638 86275 351
40105 89681 351
40042 44122 288
41818 63738 340
763737 928060 525
294126 324799 384
244323 371894 441
978176 991889 427
209708 218140 386
9496 176261 383
188553 922899 525
34125 46758 324
77024 94909 351
39920 61122 340
1739 135116 354
125665 199558 383
85 103690 351
610 654 145
361 939 179
616 870 171
660 815 171
286 660 145
15 203 125
483 660 145
811 903 179
987 990 99
212 422 144
432 546 142
199 267 128
1038 1284 182
2637 4511 238
3109 4024 238
1985 2380 183
4487 4703 184
4718 4984 210
1788 4940 238
2281 3089 217
2046 3006 217
46742 47057 252
36133 48704 314
36848 36873 169
46303 47281 283
24663 27128 308
37561 42552 306
49585 30781 324
24055 12547 282
54407 54231 260
99058 93574 328
80062 64847 351
57886 53937 322
63645 55682 335
57275 52669 322
93267 86523 333
166676 145596 383
154673 147750 370
168568 168543 197
129437 124990 331
161257 103375 383
255386 213494 443
197743 194129 360
267035 262612 407
199470 197768 329
189795 189712 241
196832 193658 360
197588 197073 267
199763 198201 329
200301 200287 298
200715 200499 311
200934 200852 267
200455 200082 342
200825 200763 205
200717 200709 161
300891 300682 309
300995 300991 141
300388 300342 234
300972 300926 265
300401 300233 234
351159 350638 273
351907 351831 304
351938 350541 379
360514 360417 286
360595 360306 410
360923 360816 229
360671 360596 255
360895 360608 242
360107 360058 229
1000000 1000000 153
999297 999426 277
999796 999965 259
999428 999613 290
929502 929578 308
929699 929713 171
929302 929919 339
929971 929978 171
