...................
----------------------------------------------------------------------
Ran 19 tests in 17.124s

OK
Name             Stmts   Miss Branch BrPart  Cover   Missing
------------------------------------------------------------
Collatz.py          56      0     26      0   100%
TestCollatz.py      83      0      0      0   100%
------------------------------------------------------------
TOTAL              139      0     26      0   100%