316736 768507 509
239615 817085 509
486923 481717 382
315596 411107 449
834138 25418 509
223080 42650 386
630732 385656 509
559568 546630 452
346175 194911 443
829006 64980 509
585979 604786 403
118757 497570 449
231099 545061 470
203165 689651 509
951481 974671 458
147817 258348 443
984920 471908 525
884737 615317 525
313288 167721 443
498900 297417 449
108246 326574 443
237276 889554 525
656421 530864 509
334892 723624 509
429903 925246 525
853160 488538 525
479476 800528 509
784661 741325 468
953874 51172 525
663368 866539 525
440007 31313 449
144546 827332 509
585001 160955 470
613367 742444 509
330443 598767 470
789324 133578 509
842580 142603 525
674552 224887 509
326338 320988 384
822799 226288 509
483038 896454 525
387446 327176 441
715117 873274 525
870280 818240 525
141623 719812 509
16598 220832 386
595070 488782 470
481163 236246 449
342007 430963 449
291775 689620 509
193199 969676 525
117232 556190 470
78104 636857 509
447893 978777 525
571988 887338 525
884023 892669 445
78072 238674 443
792586 166134 509
461390 306819 449
24190 721539 509
453597 223505 449
947486 919283 507
204921 984173 525
337147 703676 509
656163 328440 509
734982 471788 509
284083 156318 443
737647 180429 509
955955 354110 525
472957 602421 470
358103 534083 470
226934 478265 449
54790 700219 509
15119 680060 509
591810 127364 470
158775 59877 383
529254 203511 470
305539 776962 509
61291 989346 525
959869 343257 525
240783 635176 509
410968 184393 449
197985 148804 383
534026 998749 525
27876 48404 324
366578 333623 441
143181 532789 470
762687 704428 504
921253 533789 525
587923 877665 525
604053 340417 470
18169 257821 443
132986 548795 470
370015 311977 441
905978 575529 525
394266 146239 443
22799 419847 449
78601 535540 470
808248 186585 509
150372 748195 509
920887 117943 525
186688 550366 470
