.............
----------------------------------------------------------------------
Ran 13 tests in 0.014s

OK
Name             Stmts   Miss Branch BrPart  Cover   Missing
------------------------------------------------------------
Collatz.py          45      2     16      1    95%   71-72, 70->71
TestCollatz.py      59      0      0      0   100%
------------------------------------------------------------
TOTAL              104      2     16      1    98%
