1 10 20
100 200 125
201 210 89
900 1000 174
2366 5263 238
5302 10526 262
4306 15789 276
10698 21052 279
22889 26315 282
10739 31578 308
27771 36841 324
28733 42104 324
31666 47367 324
49527 52630 340
53317 57893 322
59256 63156 335
68320 68419 237
72363 73682 294
64015 78945 351
74664 84208 351
81784 89471 333
79141 94734 333
91885 99997 328
100762 105260 341
100632 110523 354
111851 115786 349
106272 121049 349
125089 126312 318
129267 131575 344
131286 136838 344
126721 142101 344
138804 147364 375
145931 152627 370
148222 157890 383
153897 163153 383
156214 168416 370
160109 173679 370
174250 178942 347
173882 184205 365
186534 189468 347
187309 194731 360
190700 199994 360
199336 205257 342
208236 210520 342
207914 215783 373
205239 221046 386
222535 226309 368
225425 231572 443
228263 236835 443
237645 242098 368
247082 247361 306
250375 252624 319
256501 257887 345
257214 263150 407
248702 268413 407
271150 273676 314
278679 278939 283
264648 284202 407
287039 289465 389
282962 294728 389
288229 299991 389
301523 305254 340
295229 310517 371
308909 315780 384
313437 321043 371
318581 326306 384
330531 331569 322
334446 336832 366
332624 342095 366
328299 347358 441
350054 352621 379
352209 357884 379
347864 363147 410
365805 368410 348
371590 373673 348
368885 378936 423
376300 384199 423
380979 389462 436
384501 394725 436
390001 399988 405
397157 405251 387
406292 410514 449
411651 415777 374
410255 421040 387
410900 426303 418
425113 431566 374
429334 436829 387
428511 442092 400
445642 447355 325
438825 452618 387
454805 457881 356
461988 463144 369
460435 468407 444
465449 473670 413
476546 478933 382
476305 484196 413
484860 489459 382
493530 494722 395
486498 499985 426
484811 505248 426
509853 510511 289
502687 515774 470
509507 521037 470
521759 526300 408
524306 531563 408
530758 536826 377
535752 542089 408
544654 547352 452
535573 552615 452
549766 557878 421
557915 563141 359
561452 568404 421
572734 573667 359
570512 578930 390
572878 584193 434
584915 589456 359
592050 594719 328
589535 599982 403
597786 605245 403
606983 610508 403
609682 615771 447
612380 621034 447
611537 626297 447
626312 631560 509
633645 636823 416
630496 642086 416
626704 647349 416
644596 652612 385
647205 657875 429
654481 663138 429
665234 668401 398
669250 673664 367
663827 678927 442
679888 684190 380
678979 689453 398
686772 694716 442
696609 699979 367
691324 705242 504
706287 710505 380
705589 715768 411
717397 721031 411
721280 726294 411
727611 731557 380
731280 736820 424
739167 742083 393
741320 747346 349
746869 752609 393
745562 757872 424
758108 763135 380
759799 768398 468
771850 773661 393
776416 778924 437
773522 784187 437
779545 789450 406
792648 794713 437
793893 799976 468
792864 805239 468
810413 810502 225
815115 815765 357
801160 821028 450
816487 826291 450
816772 831554 450
817196 836817 450
835456 842080 525
838330 847343 401
851693 852606 326
850123 857869 419
859914 863132 357
863297 868395 388
873599 873658 295
878604 878921 326
868815 884184 432
888435 889447 370
893449 894710 370
880315 899973 445
895562 905236 401
907503 910499 476
905713 915762 476
915224 921025 432
922844 926288 383
931306 931551 308
935256 936814 414
938274 942077 507
947049 947340 383
944471 952603 414
950956 957866 414
949548 963129 414
964217 968392 365
960698 973655 458
958186 978918 458
975370 984181 427
986971 989444 396
979206 994707 427
991467 999970 440
989444 999999 440
1 100 119
1 2000 182
1500 2500 209
