1 10 20
100 200 125
201 210 89
900 1000 174
441 743 171
554 16 144
644 154 144
889 357 179
475 667 145
424 421 41
836 735 153
293 88 128
382 233 144
316 14 131
772 681 171
204 462 144
287 126 128
699 248 145
169 86 122
361 474 134
626 342 142
393 38 144
577 852 171
707 802 153
109 635 144
354 195 144
156 585 144
164 170 112
676 971 179
306 392 144
482 478 54
325 550 144
77 31 116
636 534 137
261 466 144
643 5 144
584 747 171
76 829 171
201 44 125
792 816 135
723 478 171
457 742 171
899 486 179
342 508 142
365 251 144
62 145 122
93 93 18
6 59 113
630 643 132
414 889 179
875 740 179
508 521 124
910 568 179
956 551 179
344 299 144
432 762 171
125 144 122
871 356 179
743 840 153
926 894 130
107 424 144
489 383 142
91 359 144
871 900 179
350 211 144
748 199 171
298 799 171
328 774 171
51 973 179
752 76 171
523 70 144
766 76 171
573 197 144
263 442 144
597 918 179
430 483 129
984 33 179
752 48 171
343 686 145
818 334 171
625 795 171
219 435 144
119 767 171
937 558 179
281 136 128
798 923 179
636 802 171
313 158 131
326 795 171
138 837 171
186 688 145
591 768 171
493 487 142
965 116 179
487 695 145
277 927 179
577 937 179
943 419 179
458 887 179
613 552 137
327 138 144
626 427 142
51 591 144
73 474 144
958 297 179
95 604 144
93 209 125
781 128 171
452 105 144
808 598 171
886 97 179
834 29 171
884 688 179
124 951 179
122 595 144
157 588 144
244 794 171
471 166 144
20 736 171
678 217 145
277 170 128
918 404 179
98 968 179
260 431 144
74 711 171
442 114 144
519 938 179
284 771 171
913 294 179
152 259 128
529 685 145
707 575 171
547 352 142
382 625 142
444 9 144
644 955 179
152 297 128
398 775 171
497 685 145
843 800 135
175 91 125
517 588 137
650 263 145
917 430 179
823 26 171
921 251 179
37 764 171
180 678 145
193 176 120
530 769 171
806 961 179
435 188 144
901 11 179
979 841 179
